<svg xmlns="http://www.w3.org/2000/svg" width="28" height="24" viewBox="0 0 28 24">
  <path id="Path_4278" data-name="Path 4278" d="M6,3A2,2,0,0,0,4,5V9L1,13a2,2,0,0,0,4,0L7,9h3L9,13a2,2,0,0,0,4,0V9h4v4a2,2,0,0,0,4,0L20,9h3l2,4a2,2,0,0,0,4,0L26,9V5a2,2,0,0,0-2-2ZM7,5A1,1,0,1,1,6,6,1,1,0,0,1,7,5Zm4,0a1,1,0,1,1-1,1A1,1,0,0,1,11,5ZM4,17v7a3.015,3.015,0,0,0,3,3H23a3.015,3.015,0,0,0,3-3V17H24v7a.984.984,0,0,1-1,1H7a.984.984,0,0,1-1-1V17Z" transform="translate(-1 -3)" fill="#333"/>
</svg>
